Adding user vbedia3 to group authjobs
Script began: Fri Sep 19 10:28:20 EDT 2014
Node: jinx4
Current directory: /nethome/vbedia3/lab1-stango_hu

=== Running 5 trials of Quicksort on 10 million elements ... ===
*** Trial 1 ***

N == 10000000

Sequential: 1.93611 seconds ==> 5.165 million keys per second
Parallel sort: 0.151914 seconds ==> 65.8267 million keys per second
*** Trial 2 ***

N == 10000000

Sequential: 1.93447 seconds ==> 5.16937 million keys per second
Parallel sort: 0.154675 seconds ==> 64.6517 million keys per second
*** Trial 3 ***

N == 10000000

Sequential: 1.9354 seconds ==> 5.16689 million keys per second
Parallel sort: 0.157427 seconds ==> 63.5215 million keys per second
*** Trial 4 ***

N == 10000000

Sequential: 1.93644 seconds ==> 5.16412 million keys per second
Parallel sort: 0.161345 seconds ==> 61.979 million keys per second
*** Trial 5 ***

N == 10000000

Sequential: 1.93617 seconds ==> 5.16484 million keys per second
Parallel sort: 0.158986 seconds ==> 62.8986 million keys per second

=== Done! ===
Removing user vbedia3 from group authjobs
