Timer: gettimeofday
Timer resolution: ~ 1 us (?)
	(Array is sorted.)
*** ERROR ***
  A[i=1135299] == 504201181 > A[1135300] == 76436060
qsort: sort.cc:68: void assertIsSorted(int, const unsigned long *): Assertion `A[i-1] <= A[i]' failed.
/var/lib/torque/mom_priv/jobs/233498.jinx-login.cc.gatech.edu.SC: line 20: 21324 Aborted                 (core dumped) ./qsort 10000000
Timer: gettimeofday
Timer resolution: ~ 1 us (?)
	(Array is sorted.)
*** ERROR ***
  A[i=3119804] == 1803461847 > A[3119805] == 761848914
qsort: sort.cc:68: void assertIsSorted(int, const unsigned long *): Assertion `A[i-1] <= A[i]' failed.
/var/lib/torque/mom_priv/jobs/233498.jinx-login.cc.gatech.edu.SC: line 20: 21351 Aborted                 (core dumped) ./qsort 10000000
Timer: gettimeofday
Timer resolution: ~ 1 us (?)
	(Array is sorted.)
*** ERROR ***
  A[i=791936] == 504151559 > A[791937] == 3193591
qsort: sort.cc:68: void assertIsSorted(int, const unsigned long *): Assertion `A[i-1] <= A[i]' failed.
/var/lib/torque/mom_priv/jobs/233498.jinx-login.cc.gatech.edu.SC: line 20: 21376 Aborted                 (core dumped) ./qsort 10000000
Timer: gettimeofday
Timer resolution: ~ 1 us (?)
	(Array is sorted.)
*** ERROR ***
  A[i=1367071] == 589243892 > A[1367072] == 137762349
qsort: sort.cc:68: void assertIsSorted(int, const unsigned long *): Assertion `A[i-1] <= A[i]' failed.
/var/lib/torque/mom_priv/jobs/233498.jinx-login.cc.gatech.edu.SC: line 20: 21401 Aborted                 (core dumped) ./qsort 10000000
Timer: gettimeofday
Timer resolution: ~ 1 us (?)
	(Array is sorted.)
*** ERROR ***
  A[i=4552342] == 2147483130 > A[4552343] == 589249558
qsort: sort.cc:68: void assertIsSorted(int, const unsigned long *): Assertion `A[i-1] <= A[i]' failed.
/var/lib/torque/mom_priv/jobs/233498.jinx-login.cc.gatech.edu.SC: line 20: 21426 Aborted                 (core dumped) ./qsort 10000000
